<?xml version="1.0" encoding="utf-8"?>
<!-- Generator: Adobe Illustrator 23.0.1, SVG Export Plug-In . SVG Version: 6.00 Build 0)  -->
<svg version="1.1" id="Layer_1" xmlns="http://www.w3.org/2000/svg" xmlns:xlink="http://www.w3.org/1999/xlink" x="0px" y="0px"
	 viewBox="0 0 512 512" style="enable-background:new 0 0 512 512;" xml:space="preserve">
<style type="text/css">
	.st0{fill:#0015FF;}
</style>
<path class="st0" d="M192,405.3V256h-21.3v64H128v-64h-21.3v64c0,11.8,9.6,21.3,21.3,21.3h42.7v64H192z"/>
<path class="st0" d="M405.3,405.3V256H384v64h-42.7v-64H320v64c0,11.8,9.6,21.3,21.3,21.3H384v64H405.3z"/>
<path class="st0" d="M234.7,256c-11.8,0-21.3,9.6-21.3,21.3V384c0,11.8,9.6,21.3,21.3,21.3h42.7c11.8,0,21.3-9.6,21.3-21.3V277.3
	c0-11.8-9.6-21.3-21.3-21.3H234.7z M234.7,384V277.3h42.7l0,106.7H234.7z"/>
<path class="st0" d="M448,213.3h-32v21.3h32v192H64v-192h32v-21.3H64c-11.8,0-21.3,9.6-21.3,21.3v192c0,11.8,9.6,21.3,21.3,21.3h384
	c11.8,0,21.3-9.6,21.3-21.3v-192C469.3,222.9,459.8,213.3,448,213.3z"/>
<path class="st0" d="M138.7,213.3h234.7v21.3H138.7V213.3z"/>
<path class="st0" d="M106.7,234.7H128v-64h10.7v-21.3H96v21.3h10.7V234.7z"/>
<path class="st0" d="M384,234.7h21.3v-64H416v-21.3h-42.7v21.3H384V234.7z"/>
</svg>
