<?xml version="1.0" encoding="utf-8"?>
<!-- Generator: Adobe Illustrator 23.0.1, SVG Export Plug-In . SVG Version: 6.00 Build 0)  -->
<svg version="1.1" id="Capa_1" xmlns="http://www.w3.org/2000/svg" xmlns:xlink="http://www.w3.org/1999/xlink" x="0px" y="0px"
	 viewBox="0 0 453.4 453.4" style="enable-background:new 0 0 453.4 453.4;" xml:space="preserve">
<style type="text/css">
	.st0{fill:#0015FF;}
</style>
<path id="XMLID_811_" class="st0" d="M418.5,284.9l-80.9,14.2V115.6l84.9-14.9c5.6-1,9.4-6.3,8.4-12c-1-5.6-6.3-9.4-12-8.4
	l-81.4,14.2V10.3C337.6,4.6,333,0,327.3,0s-10.3,4.6-10.3,10.3v87.9l-180.4,31.6V49.6c0-5.7-4.6-10.3-10.3-10.3s-10.3,4.6-10.3,10.3
	v83.8l-84.5,14.8c-5.6,1-9.4,6.3-8.4,12c0.9,5,5.2,8.6,10.2,8.6c0.6,0,1.2-0.1,1.8-0.2l80.9-14.2v183.5l-84.9,14.9
	c-5.6,1-9.4,6.3-8.4,12c0.9,5,5.2,8.6,10.2,8.6c0.6,0,1.2-0.1,1.8-0.2l81.4-14.2v84.3c0,5.7,4.6,10.3,10.3,10.3s10.3-4.6,10.3-10.3
	v-87.9l180.4-31.6v80.2c0,5.7,4.6,10.3,10.3,10.3s10.3-4.6,10.3-10.3V320l84.5-14.8c5.6-1,9.4-6.3,8.4-12
	C429.5,287.7,424.1,283.9,418.5,284.9z M136.5,334.3V150.8l180.4-31.6v183.5L136.5,334.3z"/>
</svg>
